<svg xmlns="http://www.w3.org/2000/svg" width="64" height="64" version="1">
 <rect style="opacity:0.2" width="56" height="36" x="4" y="22" rx="2.8" ry="2.8"/>
 <path style="fill:#6D918C" d="M 4,46.2 C 4,47.751 5.2488,49 6.8,49 H 57.2 C 58.751,49 60,47.751 60,46.2 V 15.8 C 60,14.249 58.751,13 57.2,13 H 32 C 27.8,13 26.4,7 22.2,7 H 6.8 C 5.2488,7 4,8.2488 4,9.8"/>
 <rect style="opacity:0.2" width="56" height="36" x="4" y="20" rx="2.8" ry="2.8"/>
 <rect style="fill:#C0C0C0" width="48" height="22" x="8" y="16" rx="2.8" ry="2.8"/>
 <rect style="fill:#89B7B0" width="56" height="36" x="4" y="21" rx="2.8" ry="2.8"/>
 <path style="opacity:0.1;fill:#C0C0C0" d="M 6.8008,7 C 5.2496,7 4,8.2496 4,9.8008 V 10.801 C 4,9.2496 5.2496,8 6.8008,8 H 22.199 C 26.399,8 27.8,14 32,14 H 57.199 C 58.75,14 60,15.25 60,16.801 V 15.801 C 60,14.25 58.75,13 57.199,13 H 32 C 27.8,13 26.399,7 22.199,7 Z"/>
 <path style="fill:#252B2D" d="M 32 27 A 12 12 0 0 0 20 39 A 12 12 0 0 0 32 51 A 12 12 0 0 0 44 39 A 12 12 0 0 0 32 27 z M 32 30 A 9 9 0 0 1 41 39 A 9 9 0 0 1 32 48 A 9 9 0 0 1 23 39 A 9 9 0 0 1 32 30 z M 30 33 L 30 41 L 38 41 L 38 38 L 33 38 L 33 33 L 30 33 z"/>
</svg>
