<svg xmlns="http://www.w3.org/2000/svg" width="24" height="24" version="1">
 <rect style="opacity:0.2" width="20" height="12" x="2" y="9.5" rx="1" ry="1"/>
 <path style="fill:#6D918C" d="M 2,17 C 2,17.554 2.446,18 3,18 H 21 C 21.554,18 22,17.554 22,17 V 6 C 22,5.446 21.554,5 21,5 H 12 C 10.5,5 10,3 8.5,3 H 3 C 2.446,3 2,3.446 2,4"/>
 <rect style="opacity:0.2" width="20" height="10" x="2" y="10.5" rx="1" ry="1"/>
 <rect style="fill:#C0C0C0" width="16" height="8" x="4" y="7" rx="1" ry="1"/>
 <rect style="fill:#89B7B0" width="20" height="10" x="2" y="11" rx="1" ry="1"/>
 <path style="opacity:0.1;fill:#C0C0C0" d="M 3,3 C 2.446,3 2,3.446 2,4 V 4.5 C 2,3.946 2.446,3.5 3,3.5 H 8.5 C 10,3.5 10.5,5.5 12,5.5 H 21 C 21.554,5.5 22,5.946 22,6.5 V 6 C 22,5.446 21.554,5 21,5 H 12 C 10.5,5 10,3 8.5,3 Z"/>
 <path style="fill:#252B2D" d="M 11,13 C 9.989,13.202 9.202,13.99 9,15 H 7 V 16 H 9 C 9.202,17.009 9.991,17.797 11,18 Z M 12,13 V 18 C 13.01,17.798 13.798,17.01 14,16 H 16 V 15 H 14 C 13.797,13.991 13.009,13.203 12,13 Z"/>
</svg>
